{
  "type": "expandedstorage:block_conversion",
  "inputs": [
    {
      "tag": "forge:barrels/wooden"
    },
    {
      "condition": "expandedstorage:is_wooden_barrel"
    }
  ],
  "result": {
    "id": "expandedstorage:iron_barrel"
  },
  "tool": {
    "id": "expandedstorage:wood_to_iron_conversion_kit"
  }
}