{
  "parent": "minecraft:recipes/root",
  "criteria": {
    "has_previous_block": {
      "conditions": {
        "items": [
          {
            "items": [
              "expandedstorage:white_mini_present"
            ]
          }
        ]
      },
      "trigger": "minecraft:inventory_changed"
    },
    "has_the_recipe": {
      "conditions": {
        "recipe": "expandedstorage:candy_cane_mini_present"
      },
      "trigger": "minecraft:recipe_unlocked"
    }
  },
  "requirements": [
    [
      "has_previous_block",
      "has_the_recipe"
    ]
  ],
  "rewards": {
    "recipes": [
      "expandedstorage:candy_cane_mini_present"
    ]
  }
}