{
  "parent": "minecraft:recipes/root",
  "criteria": {
    "has_previous_block": {
      "conditions": {
        "items": [
          {
            "tag": "c:wooden_barrels"
          }
        ]
      },
      "trigger": "minecraft:inventory_changed"
    },
    "has_the_recipe": {
      "conditions": {
        "recipe": "expandedstorage:copper_barrel"
      },
      "trigger": "minecraft:recipe_unlocked"
    }
  },
  "requirements": [
    [
      "has_previous_block",
      "has_the_recipe"
    ]
  ],
  "rewards": {
    "recipes": [
      "expandedstorage:copper_barrel"
    ]
  }
}