{
  "parent": "minecraft:recipes/root",
  "criteria": {
    "has_item": {
      "conditions": {
        "items": [
          {
            "items": [
              "expandedstorage:wood_chest"
            ]
          }
        ]
      },
      "trigger": "minecraft:inventory_changed"
    },
    "has_the_recipe": {
      "conditions": {
        "recipe": "expandedstorage:netherite_mini_chest"
      },
      "trigger": "minecraft:recipe_unlocked"
    }
  },
  "requirements": [
    [
      "has_item",
      "has_the_recipe"
    ]
  ],
  "rewards": {
    "recipes": [
      "expandedstorage:netherite_mini_chest"
    ]
  }
}