{
  "parent": "expandedstorage:block/parent/mini_barrel_with_sparrow",
  "textures": {
    "atlas": "expandedstorage:block/oxidized_copper_mini_barrel",
    "particle": "minecraft:block/barrel_side"
  }
}
